[
  {
    "Name": "base",
    "Renderer": "mmd lines",
    "Style": "hue style",
    "InteractionProperties": {
      "InteractionType": 2,
      "RestraintLayer": false
    },
    "SelectedAtoms": [],
    "IsVisible": false
  },
  {
    "Name": "Backbone",
    "Renderer": "nsb outline",
    "Style": "hue style",
    "InteractionProperties": {
      "InteractionType": 2,
      "RestraintLayer": false
    },
    "SelectedAtoms": [
      0,
      4,
      24,
      25,
      26,
      28,
      38,
      39,
      40,
      42,
      58,
      59,
      60,
      62,
      72,
      73,
      74,
      76,
      86,
      87,
      88,
      90,
      105,
      106,
      107,
      109,
      119,
      120,
      121,
      123,
      141,
      142,
      143,
      145,
      148,
      149,
      150,
      152,
      167,
      168,
      169,
      171,
      177,
      178,
      179,
      181,
      191,
      192,
      193,
      195,
      210,
      211,
      212,
      214,
      224,
      225,
      226,
      228,
      235,
      236,
      237,
      239,
      259,
      260,
      261,
      263,
      276,
      277,
      278,
      280,
      295,
      296,
      297,
      299,
      316,
      317,
      318,
      320,
      323,
      324,
      325,
      327,
      345,
      346,
      347,
      349,
      357,
      358,
      359,
      361,
      371,
      372,
      373,
      375,
      381,
      382,
      383,
      385,
      397,
      398,
      399,
      401,
      421,
      422,
      423,
      425,
      440,
      441,
      442,
      444,
      447,
      448,
      449,
      451,
      462,
      463,
      464,
      466,
      473,
      474,
      475,
      477,
      484,
      485,
      486,
      488,
      496,
      497,
      498,
      500,
      512,
      513,
      514,
      516,
      531,
      532,
      533,
      535,
      547,
      548,
      549,
      551,
      561,
      562,
      563,
      565,
      585,
      586,
      587,
      589,
      600,
      601,
      602,
      612,
      614,
      615,
      616,
      618,
      635,
      636,
      637,
      639,
      651,
      652,
      653,
      655,
      662,
      663,
      664,
      666,
      672,
      673,
      674,
      676,
      684,
      685,
      686,
      696,
      698,
      699,
      700,
      702,
      710,
      711,
      712,
      714,
      725,
      726,
      727,
      729,
      735,
      736,
      737,
      739,
      759,
      760,
      761,
      763,
      779,
      780,
      781,
      783,
      800,
      801,
      802,
      804,
      810,
      811,
      812,
      814,
      829,
      830,
      831,
      833,
      840,
      841,
      842,
      844,
      857,
      858,
      859,
      861,
      864,
      865,
      866,
      868,
      878,
      879,
      880,
      882,
      892,
      893,
      894,
      896,
      911,
      912,
      913,
      915,
      935,
      936,
      937,
      939,
      942,
      943,
      944,
      946,
      964,
      965,
      966,
      968,
      981,
      982,
      983,
      985,
      992,
      993,
      994,
      996,
      1006,
      1007,
      1008,
      1010,
      1013,
      1014,
      1015,
      1017,
      1027,
      1028,
      1029,
      1031,
      1046,
      1047,
      1048,
      1050,
      1063,
      1064,
      5936,
      5935,
      5920,
      5918,
      5917,
      5916,
      1101,
      1103,
      1110,
      1111,
      1112,
      1114,
      1127,
      1128,
      1129,
      1131,
      1148,
      1149,
      1150,
      1152,
      1172,
      1173,
      1174,
      1176,
      1182,
      1183,
      1184,
      1186,
      1201,
      1202,
      1203,
      1205,
      1220,
      1221,
      1222,
      1224,
      1231,
      1232,
      1233,
      1235,
      1255,
      1256,
      1257,
      1267,
      1269,
      1270,
      1271,
      1273,
      1288,
      1289,
      1290,
      1292,
      1299,
      1300,
      1301,
      1303,
      1310,
      1311,
      1312,
      1322,
      1324,
      1325,
      1326,
      1336,
      1338,
      1339,
      1340,
      1342,
      1352,
      1353,
      1354,
      1356,
      1368,
      1369,
      1370,
      1372,
      1389,
      1390,
      1391,
      1393,
      1403,
      1404,
      1405,
      1407,
      1414,
      1415,
      1416,
      1418,
      1438,
      1439,
      1440,
      1442,
      1454,
      1455,
      1456,
      1458,
      1469,
      1470,
      1471,
      1473,
      1479,
      1480,
      1481,
      1483,
      1498,
      1499,
      1500,
      1502,
      1505,
      1506,
      1507,
      1509,
      1529,
      1530,
      1531,
      1533,
      1540,
      1541,
      1542,
      1544,
      1551,
      1552,
      1553,
      1555,
      1565,
      1566,
      1567,
      1569,
      1576,
      1577,
      1578,
      1580,
      1586,
      1587,
      1588,
      1590,
      1603,
      1604,
      1605,
      1607,
      1615,
      1616,
      1617,
      1619,
      1622,
      1623,
      1624,
      1626,
      1644,
      1645,
      1646,
      1648,
      1655,
      1656,
      1657,
      1659,
      1679,
      1680,
      1681,
      1683,
      1696,
      1697,
      1698,
      1700,
      1707,
      1708,
      1709,
      1711,
      1726,
      1727,
      1728,
      1730,
      1736,
      1737,
      1738,
      1740,
      1755,
      1756,
      1757,
      1759,
      1766,
      1767,
      1768,
      1770,
      1773,
      1774,
      1775,
      1785,
      1787,
      1788,
      1789,
      1791,
      1801,
      1802,
      1803,
      1805,
      1815,
      1816,
      1817,
      1819,
      1829,
      1830,
      1831,
      1833,
      1839,
      1840,
      1841,
      1843,
      1850,
      1851,
      1852,
      1854,
      1860,
      1861,
      1862,
      1864,
      1876,
      1877,
      1878,
      1880,
      1892,
      1893,
      1894,
      1896,
      1916,
      1917,
      1918,
      1920,
      1937,
      1938,
      1939,
      1941,
      1951,
      1952,
      1953,
      1955,
      1975,
      1976,
      1977,
      1979,
      1999,
      2000,
      2001,
      2011,
      2013,
      2014,
      2015,
      2017,
      2029,
      2030,
      2031,
      2033,
      2039,
      2040,
      2041,
      2043,
      2054,
      2055,
      2056,
      2058,
      2073,
      2074,
      2075,
      2077,
      2087,
      2088,
      2089,
      2091,
      2101,
      2102,
      2103,
      2105,
      2125,
      2126,
      2127,
      2129,
      2135,
      2136,
      2137,
      2139,
      2159,
      2160,
      2161,
      2163,
      2173,
      2174,
      2175,
      2177,
      2192,
      2193,
      2194,
      2196,
      2211,
      2212,
      2213,
      2215,
      2235,
      2236,
      2237,
      2239,
      2249,
      2250,
      2251,
      2253,
      2266,
      2267,
      2268,
      2270,
      2281,
      2282,
      2283,
      2285,
      2292,
      2293,
      2294,
      2296,
      2307,
      2308,
      2309,
      2311,
      2317,
      2318,
      2319,
      2321,
      2333,
      2334,
      2335,
      2337,
      2343,
      2344,
      2345,
      2347,
      2360,
      2361,
      2362,
      2364,
      2374,
      2375,
      2376,
      2378,
      2381,
      2382,
      2383,
      2385,
      2397,
      2398,
      2399,
      2401,
      2407,
      2408,
      2409,
      2419,
      2421,
      2422,
      2423,
      2425,
      2437,
      2438,
      2439,
      2441,
      2453,
      2454,
      2455,
      2457,
      2473,
      2474,
      2475,
      2477,
      2487,
      2488,
      2489,
      2491,
      2499,
      2500,
      2501,
      2503,
      2506,
      2507,
      2508,
      2510,
      2517,
      2518,
      2519,
      2521,
      2527,
      2528,
      2529,
      2531,
      2541,
      2542,
      2543,
      2545,
      2548,
      2549,
      2550,
      2560,
      2562,
      2563,
      2564,
      2566,
      2572,
      2573,
      2574,
      2576,
      2584,
      2585,
      2586,
      2588,
      2598,
      2599,
      2600,
      2602,
      2622,
      2623,
      2624,
      2626,
      2641,
      2642,
      2643,
      2645,
      2662,
      2663,
      2664,
      2666,
      2683,
      2684,
      2685,
      2687,
      2703,
      2704,
      2705,
      2707,
      2725,
      2726,
      2727,
      2729,
      2740,
      2741,
      2742,
      2744,
      2747,
      2748,
      2749,
      2751,
      2769,
      2770,
      2771,
      2773,
      2788,
      2789,
      2790,
      2792,
      2807,
      2808,
      2809,
      2811,
      2829,
      2830,
      2831,
      2833,
      2853,
      2854,
      2855,
      2857,
      2868,
      2869,
      2870,
      2872,
      2879,
      2880,
      2881,
      2883,
      2898,
      2899,
      2900,
      2902,
      2912,
      2913,
      2914,
      2916,
      2919,
      2920,
      2921,
      2923,
      2933,
      2934,
      2935,
      2937,
      2943,
      2944,
      2945,
      2947,
      2965,
      2966,
      2967,
      2969,
      2982,
      2983,
      2984,
      2986,
      3001,
      3002,
      3003,
      3005,
      3016,
      3017,
      3018,
      3020,
      3031,
      3032,
      3033,
      3035,
      3041,
      3042,
      3043,
      3045,
      3052,
      3053,
      3054,
      3056,
      3062,
      3063,
      3064,
      3066,
      3083,
      3084,
      3085,
      3087,
      3090,
      3091,
      3092,
      3094,
      3105,
      3106,
      3107,
      3109,
      3129,
      3130,
      3131,
      3133,
      3143,
      3144,
      3145,
      3147,
      3150,
      3151,
      3152,
      3154,
      3169,
      3170,
      3171,
      3173,
      3183,
      3184,
      3185,
      3187,
      3193,
      3194,
      3195,
      3197,
      3207,
      3208,
      3209,
      3211,
      3217,
      3218,
      3219,
      3221,
      3241,
      3242,
      3243,
      3245,
      3253,
      3254,
      3255,
      3257,
      3267,
      3268,
      3269,
      3271,
      3291,
      3292,
      3293,
      3295,
      3308,
      3309,
      3310,
      3312,
      3315,
      3316,
      3317,
      3319,
      3326,
      3327,
      3328,
      3330,
      3340,
      3341,
      3342,
      3344,
      3364,
      3365,
      3366,
      3376,
      3378,
      3379,
      3380,
      3382,
      3394,
      3395,
      3396,
      3398,
      3413,
      3414,
      3415,
      3417,
      3430,
      3431,
      3432,
      3434,
      3449,
      3450,
      3451,
      3453,
      3461,
      3462,
      3463,
      3473,
      3475,
      3476,
      3477,
      3479,
      3491,
      3492,
      3493,
      3495,
      3501,
      3502,
      3503,
      3505,
      3518,
      3519,
      3520,
      3522,
      3532,
      3533,
      3534,
      3536,
      3549,
      3550,
      3551,
      3553,
      3563,
      3564,
      3565,
      3567,
      3574,
      3575,
      3576,
      3578,
      3591,
      3592,
      3593,
      3595,
      3612,
      3613,
      3614,
      3616,
      3631,
      3632,
      3633,
      3635,
      3641,
      3642,
      3643,
      3645,
      3652,
      3653,
      3654,
      3664,
      3666,
      3667,
      3668,
      3670,
      3682,
      3683,
      3684,
      3686,
      3701,
      3702,
      3703,
      3705,
      3715,
      3716,
      3717,
      3719,
      3727,
      3728,
      3729,
      3731,
      3741,
      3742,
      3743,
      3753,
      3755,
      3756,
      3757,
      3759,
      3779,
      3780,
      3781,
      3791,
      3793,
      3794,
      3795,
      3797,
      3807,
      3808,
      3809,
      3811,
      3819,
      3820,
      3821,
      3831,
      3833,
      3834,
      3835,
      3837,
      3847,
      3848,
      3849,
      3851,
      3866,
      3867,
      3868,
      3870,
      3873,
      3874,
      3875,
      3877,
      3895,
      3896,
      3897,
      3899,
      3905,
      3906,
      3907,
      3909,
      3919,
      3920,
      3921,
      3923,
      3931,
      3932,
      3933,
      3943,
      3945,
      3946,
      3947,
      3949,
      3966,
      3967,
      3968,
      3978,
      3980,
      3981,
      3982,
      3984,
      3987,
      3988,
      3989,
      3991,
      4001,
      4002,
      4003,
      4005,
      4015,
      4016,
      4017,
      4019,
      4029,
      4030,
      4031,
      4033,
      4043,
      4044,
      4045,
      4047,
      4050,
      4051,
      4052,
      4054,
      4066,
      4067,
      4068,
      4070,
      4088,
      4089,
      4090,
      4092,
      4095,
      4096,
      4097,
      4099,
      4115,
      4116,
      4117,
      4119,
      4126,
      4127,
      4128,
      4130,
      4147,
      4148,
      4149,
      4151,
      4166,
      4167,
      4168,
      4170,
      4178,
      4179,
      4180,
      4182,
      4185,
      4186,
      4187,
      4189,
      4195,
      4196,
      4197,
      4199,
      4209,
      4210,
      4211,
      4213,
      4223,
      4224,
      4225,
      4227,
      4247,
      4248,
      4249,
      4251,
      4266,
      4267,
      4268,
      4270,
      4273,
      4274,
      4275,
      4277,
      4297,
      4298,
      4299,
      4301,
      4311,
      4312,
      4313,
      4315,
      4330,
      4331,
      4332,
      4334,
      4341,
      4342,
      4343,
      4345,
      4355,
      4356,
      4357,
      4359,
      4365,
      4366,
      4367,
      4369,
      4376,
      4377,
      4378,
      4380,
      4400,
      4401,
      4402,
      4404,
      4411,
      4412,
      4413,
      4415,
      4418,
      4419,
      4420,
      4422,
      4439,
      4440,
      4441,
      4443,
      4454,
      4455,
      4456,
      4458,
      4471,
      4472,
      4473,
      4475,
      4490,
      4491,
      4492,
      4494,
      4512,
      4513,
      4514,
      4516,
      4528,
      4529,
      4530,
      4540,
      4542,
      4543,
      4544,
      4546,
      4556,
      4557,
      4558,
      4560,
      4566,
      4567,
      4568,
      4570,
      4585,
      4586,
      4587,
      4589,
      4599,
      4600,
      4601,
      4603,
      4611,
      4612,
      4613,
      4615,
      4623,
      4624,
      4625,
      4627,
      4647,
      4648,
      4649,
      4651,
      4658,
      4659,
      4660,
      4662,
      4680,
      4681,
      4682,
      4692,
      4694,
      4695,
      4696,
      4698,
      4713,
      4714,
      4715,
      4717,
      4730,
      4731,
      4732,
      4734,
      4737,
      4738,
      4739,
      4741,
      4754,
      4755,
      4756,
      4758,
      4768,
      4769,
      4770,
      4772,
      4787,
      4788,
      4789,
      4791,
      4803,
      4804,
      4805,
      4807,
      4822,
      4823,
      4824,
      4826,
      4836,
      4837,
      4838,
      4840,
      4846,
      4847,
      4848,
      4850,
      4858,
      4859,
      4860,
      4862,
      4882,
      4883,
      4884,
      4886,
      4893,
      4894,
      4895,
      4897,
      4900,
      4901,
      4902,
      4904,
      4921,
      4922,
      4923,
      4925,
      4932,
      4933,
      4934,
      4936,
      4939,
      4940,
      4941,
      4943,
      4950,
      4951,
      4952,
      4954,
      4970,
      4971,
      4972,
      4974,
      4987,
      4988,
      4989,
      4991,
      4999,
      5000,
      5001,
      5003,
      5020,
      5021,
      5022,
      5024,
      5044,
      5045,
      5046,
      5048,
      5054,
      5055,
      5056,
      5058,
      5069,
      5070,
      5071,
      5073,
      5076,
      5077,
      5078,
      5080,
      5088,
      5089,
      5090,
      5092,
      5098,
      5099,
      5100,
      5102,
      5119,
      5120,
      5121,
      5123,
      5143,
      5144,
      5145,
      5147,
      5153,
      5154,
      5155,
      5157,
      5163,
      5164,
      5165,
      5167,
      5183,
      5184,
      5185,
      5187,
      5204,
      5205,
      5206,
      5208,
      5220,
      5221,
      5222,
      5224,
      5235,
      5236,
      5237,
      5239,
      5254,
      5255,
      5256,
      5258,
      5273,
      5274,
      5275,
      5277,
      5297,
      5298,
      5299,
      5301,
      5304,
      5305,
      5306,
      5308,
      5328,
      5329,
      5330,
      5340,
      5342,
      5343,
      5344,
      5346,
      5364,
      5365,
      5366,
      5368,
      5379,
      5380,
      5381,
      5383,
      5391,
      5392,
      5393,
      5395,
      5413,
      5414,
      5415,
      5417,
      5429,
      5430,
      5431,
      5433,
      5453,
      5454,
      5455,
      5457,
      5477,
      5478,
      5479,
      5481,
      5491,
      5492,
      5493,
      5495,
      5502,
      5503,
      5504,
      5506,
      5516,
      5517,
      5518,
      5520,
      5527,
      5528,
      5529,
      5531,
      5546,
      5547,
      5548,
      5550,
      5562,
      5563,
      5564,
      5566,
      5573,
      5574,
      5575,
      5577,
      5590,
      5591,
      5592,
      5594,
      5600,
      5601,
      5602,
      5604,
      5611,
      5612,
      5613,
      5615,
      5622,
      5623,
      5624,
      5626,
      5636,
      5637,
      5638,
      5640,
      5651,
      5652,
      5653,
      5655,
      5671,
      5672,
      5673,
      5675,
      5690,
      5691,
      5692,
      5694,
      5697,
      5698,
      5699,
      5701,
      5714,
      5715,
      5716,
      5718,
      5738,
      5739,
      5740,
      5742,
      5752,
      5753,
      5754,
      5756,
      5776,
      5777,
      5778,
      5788,
      5790,
      5791,
      5792,
      5794,
      5802,
      5803,
      5804,
      5806,
      5809,
      5810,
      5811,
      5813,
      5819,
      5820,
      5821,
      5823,
      5841,
      5842,
      5843,
      5845,
      5860,
      5861,
      5862,
      5864,
      5875,
      5876,
      5877,
      5879,
      5896,
      5897,
      5898,
      5900,
      580,
      564,
      566,
      567,
      568,
      569,
      570,
      571,
      572,
      573,
      574,
      575,
      576,
      577,
      578,
      579,
      581,
      582,
      583,
      584,
      4394,
      4379,
      4381,
      4382,
      4383,
      4384,
      4385,
      4386,
      4387,
      4388,
      4389,
      4390,
      4391,
      4392,
      4393,
      4395,
      4396,
      4397,
      4398,
      4399,
      4034,
      4032,
      4035,
      4036,
      4037,
      4038,
      4039,
      4040,
      4041,
      4042,
      5336,
      5331,
      5332,
      5333,
      5334,
      5335,
      5337,
      5338,
      5339,
      5341,
      2184,
      2176,
      2178,
      2179,
      2180,
      2181,
      2182,
      2183,
      2185,
      2186,
      2187,
      2188,
      2189,
      2190,
      2191,
      1800,
      1790,
      1792,
      1793,
      1794,
      1795,
      1796,
      1797,
      1798,
      1799,
      3024,
      3019,
      3021,
      3022,
      3023,
      3025,
      3026,
      3027,
      3028,
      3029,
      3030,
      4917,
      4903,
      4905,
      4906,
      4907,
      4908,
      4909,
      4910,
      4911,
      4912,
      4913,
      4914,
      4915,
      4916,
      4918,
      4919,
      4920,
      4079,
      4069,
      4071,
      4072,
      4073,
      4074,
      4075,
      4076,
      4077,
      4078,
      4080,
      4081,
      4082,
      4083,
      4084,
      4085,
      4086,
      4087,
      2276,
      2269,
      2271,
      2272,
      2273,
      2274,
      2275,
      2277,
      2278,
      2279,
      2280,
      1538,
      1532,
      1534,
      1535,
      1536,
      1537,
      1539,
      2214,
      2216,
      2217,
      2218,
      2219,
      2220,
      2221,
      2222,
      2223,
      2224,
      2225,
      2226,
      2227,
      2228,
      2229,
      2230,
      2231,
      2232,
      2233,
      2234,
      1527,
      1508,
      1510,
      1511,
      1512,
      1513,
      1514,
      1515,
      1516,
      1517,
      1518,
      1519,
      1520,
      1521,
      1522,
      1523,
      1524,
      1525,
      1526,
      1528,
      817,
      813,
      815,
      816,
      818,
      819,
      820,
      821,
      822,
      823,
      824,
      825,
      826,
      827,
      828,
      1165,
      1151,
      1153,
      1154,
      1155,
      1156,
      1157,
      1158,
      1159,
      1160,
      1161,
      1162,
      1163,
      1164,
      1166,
      1167,
      1168,
      1169,
      1170,
      1171,
      591,
      588,
      590,
      592,
      593,
      594,
      595,
      596,
      597,
      598,
      599,
      3236,
      3220,
      3222,
      3223,
      3224,
      3225,
      3226,
      3227,
      3228,
      3229,
      3230,
      3231,
      3232,
      3233,
      3234,
      3235,
      3237,
      3238,
      3239,
      3240,
      3006,
      3004,
      3007,
      3008,
      3009,
      3010,
      3011,
      3012,
      3013,
      3014,
      3015
    ],
    "IsVisible": true
  },
  {
    "Name": "Ligand",
    "Renderer": "nsb outline",
    "Style": "cpk style",
    "InteractionProperties": {
      "InteractionType": 4,
      "RestraintLayer": false
    },
    "SelectedAtoms": [
      5938,
      5939,
      5940,
      5941,
      5942,
      5943,
      5944,
      5945,
      5946,
      5947,
      5948,
      5949,
      5950,
      5951,
      5952,
      5953,
      5954,
      5955,
      5956,
      5957,
      5958,
      5959,
      5960,
      5961,
      5962,
      5963,
      5964,
      5965,
      5966,
      5967,
      5968,
      5969,
      5970,
      5971,
      5972,
      5973,
      5974,
      5975,
      5976,
      5977,
      5978,
      5979,
      5980,
      5981
    ],
    "IsVisible": true
  },
  {
    "Name": "Loops",
    "Renderer": "nsb outline",
    "Style": "color style 1",
    "InteractionProperties": {
      "InteractionType": 2,
      "RestraintLayer": false
    },
    "SelectedAtoms": [
      1066,
      1065,
      1067,
      1068,
      1069,
      1070,
      1071,
      1072,
      1073,
      1074,
      1075,
      1076,
      1082,
      1077,
      1078,
      1079,
      1080,
      1081,
      1083,
      1084,
      1085,
      1086,
      1087,
      1088,
      1089,
      1090,
      1091,
      1092,
      1093,
      1094,
      1095,
      1096,
      1097,
      1098,
      1099,
      1100
    ],
    "IsVisible": true
  }
]